{
    "data":[
        {"categoryid":"27","category":"Astrology","categorystatus":"1","createdby":"1","createddatetime":"2017-07-12 02:41:54","updatedby":"1","updateddatetime":"2017-07-12 02:49:08","icon":"fa fa-star"},
        {"categoryid":"28","category":"Bakery","categorystatus":"1","createdby":"1","createddatetime":"2017-07-12 02:43:52","updatedby":"1","updateddatetime":"2017-07-21 07:23:03","icon":"fa  fa-birthday-cake"},
        {"categoryid":"29","category":"Fashion","categorystatus":"1","createdby":"1","createddatetime":"2017-07-12 03:03:59","updatedby":"0","updateddatetime":"0000-00-00 00:00:00","icon":"fa fa-diamond"},
        {"categoryid":"30","category":"Catering","categorystatus":"1","createdby":"1","createddatetime":"2017-07-12 03:05:29","updatedby":"0","updateddatetime":"0000-00-00 00:00:00","icon":"fa fa-cutlery "},
        {"categoryid":"31","category":"Furniture","categorystatus":"1","createdby":"1","createddatetime":"2017-07-12 03:07:29","updatedby":"0","updateddatetime":"0000-00-00 00:00:00","icon":"fa fa-bed"},
        {"categoryid":"32","category":"Honey Moon","categorystatus":"1","createdby":"1","createddatetime":"2017-07-12 03:09:35","updatedby":"1","updateddatetime":"2017-07-12 05:02:08","icon":"fa fa-home "},
        {"categoryid":"33","category":"Mandabam","categorystatus":"1","createdby":"1","createddatetime":"2017-07-12 03:11:54","updatedby":"1","updateddatetime":"2017-07-12 03:12:03","icon":"fa fa-bank"},
        {"categoryid":"34","category":"Photography","categorystatus":"1","createdby":"1","createddatetime":"2017-07-12 03:24:14","updatedby":"1","updateddatetime":"2017-07-21 07:23:29","icon":"fa fa-video-camera"},
        {"categoryid":"35","category":"Decorators","categorystatus":"1","createdby":"1","createddatetime":"2017-07-12 05:21:23","updatedby":"1","updateddatetime":"2017-07-12 05:25:26","icon":"fa fa-ship"},
        {"categoryid":"36","category":"test","categorystatus":"1","createdby":"1","createddatetime":"2017-07-14 07:28:32","updatedby":"0","updateddatetime":"0000-00-00 00:00:00","icon":""},
        {"categoryid":"37","category":"astro","categorystatus":"1","createdby":"1","createddatetime":"2017-07-15 02:00:16","updatedby":"0","updateddatetime":"0000-00-00 00:00:00","icon":""}
    ]
}